<?xml version="1.0" encoding="utf-8"?>
<!-- Generator: Adobe Illustrator 26.0.0, SVG Export Plug-In . SVG Version: 6.00 Build 0)  -->
<svg version="1.1" id="Capa_1" xmlns="http://www.w3.org/2000/svg" xmlns:xlink="http://www.w3.org/1999/xlink" x="0px" y="0px"
	 viewBox="0 0 185.3 185.3" style="enable-background:new 0 0 185.3 185.3;" xml:space="preserve">
<style type="text/css">
	.st0{fill:#010002;}
</style>
<g>
	<g>
		<path class="st0" d="M124.4,0c2.7,0,5.5,1,7.6,3.1c4.2,4.2,4.2,11,0,15.2L57.6,92.6L132,167c4.2,4.2,4.2,11,0,15.2
			c-4.2,4.2-11,4.2-15.2,0l-81.9-81.9c-4.2-4.2-4.2-11,0-15.2l81.9-82C118.9,1,121.6,0,124.4,0z"/>
	</g>
</g>
</svg>
