<?xml version="1.0" encoding="utf-8"?>
<!-- Generator: Adobe Illustrator 25.3.0, SVG Export Plug-In . SVG Version: 6.00 Build 0)  -->
<svg version="1.1" id="Layer_1" xmlns="http://www.w3.org/2000/svg" xmlns:xlink="http://www.w3.org/1999/xlink" x="0px" y="0px"
	 viewBox="0 0 311 311" style="enable-background:new 0 0 311 311;" xml:space="preserve">
<path d="M163.5,302.4c-2,2-4.9,3.3-8,3.3c-6.2,0-11.3-5-11.3-11.3V16.6c0-6.2,5-11.3,11.3-11.3s11.3,5,11.3,11.3v277.8
	C166.8,297.5,165.6,300.3,163.5,302.4z"/>
<path d="M302.4,163.5c-2,2-4.9,3.3-8,3.3l-277.8,0c-6.2,0-11.3-5-11.3-11.3c0-6.2,5-11.3,11.3-11.3l277.8,0c6.2,0,11.3,5,11.3,11.3
	C305.7,158.6,304.5,161.4,302.4,163.5z"/>
</svg>
